{
  "current_page": 1,
  "data": [
    {
      "id": 101,
      "state_id": 13,
      "country_id": 101,
      "city_id": 10,
      "country_name": "India",
      "state": "Haryana",
      "city": "Faridabad"
    },
    {
      "id": 101,
      "state_id": 13,
      "country_id": 101,
      "city_id": 11,
      "country_name": "India",
      "state": "Haryana",
      "city": "Palwal"
    },
    {
      "id": 101,
      "state_id": 13,
      "country_id": 101,
      "city_id": 12,
      "country_name": "India",
      "state": "Haryana",
      "city": "Hathin"
    },
    {
      "id": 101,
      "state_id": 13,
      "country_id": 101,
      "city_id": 13,
      "country_name": "India",
      "state": "Haryana",
      "city": "Hassanpur"
    },
    {
      "id": 101,
      "state_id": 13,
      "country_id": 101,
      "city_id": 14,
      "country_name": "India",
      "state": "Haryana",
      "city": "Gurgaon"
    },
    {
      "id": 101,
      "state_id": 13,
      "country_id": 101,
      "city_id": 15,
      "country_name": "India",
      "state": "Haryana",
      "city": "Sohna"
    },
    {
      "id": 101,
      "state_id": 13,
      "country_id": 101,
      "city_id": 16,
      "country_name": "India",
      "state": "Haryana",
      "city": "Ferozepur Jhirka"
    },
    {
      "id": 101,
      "state_id": 13,
      "country_id": 101,
      "city_id": 17,
      "country_name": "India",
      "state": "Haryana",
      "city": "Dharuhera"
    },
    {
      "id": 101,
      "state_id": 13,
      "country_id": 101,
      "city_id": 18,
      "country_name": "India",
      "state": "Haryana",
      "city": "Nuh"
    },
    {
      "id": 101,
      "state_id": 13,
      "country_id": 101,
      "city_id": 19,
      "country_name": "India",
      "state": "Haryana",
      "city": "Narnaul"
    },
    {
      "id": 101,
      "state_id": 13,
      "country_id": 101,
      "city_id": 20,
      "country_name": "India",
      "state": "Haryana",
      "city": "Bhiwani"
    },
    {
      "id": 101,
      "state_id": 13,
      "country_id": 101,
      "city_id": 21,
      "country_name": "India",
      "state": "Haryana",
      "city": "Kanina"
    },
    {
      "id": 101,
      "state_id": 13,
      "country_id": 101,
      "city_id": 22,
      "country_name": "India",
      "state": "Haryana",
      "city": "Loharu"
    },
    {
      "id": 101,
      "state_id": 13,
      "country_id": 101,
      "city_id": 23,
      "country_name": "India",
      "state": "Haryana",
      "city": "Rewari"
    },
    {
      "id": 101,
      "state_id": 13,
      "country_id": 101,
      "city_id": 24,
      "country_name": "India",
      "state": "Haryana",
      "city": "Charkhi Dadri"
    },
    {
      "id": 101,
      "state_id": 13,
      "country_id": 101,
      "city_id": 25,
      "country_name": "India",
      "state": "Haryana",
      "city": "Bawal"
    },
    {
      "id": 101,
      "state_id": 13,
      "country_id": 101,
      "city_id": 26,
      "country_name": "India",
      "state": "Haryana",
      "city": "Pataudi"
    },
    {
      "id": 101,
      "state_id": 13,
      "country_id": 101,
      "city_id": 27,
      "country_name": "India",
      "state": "Haryana",
      "city": "Rohtak"
    },
    {
      "id": 101,
      "state_id": 13,
      "country_id": 101,
      "city_id": 28,
      "country_name": "India",
      "state": "Haryana",
      "city": "Jhajjar"
    },
    {
      "id": 101,
      "state_id": 13,
      "country_id": 101,
      "city_id": 29,
      "country_name": "India",
      "state": "Haryana",
      "city": "Kalanaur"
    }
  ],
  "first_page_url": "http://127.0.0.1:8000/cities?page=1",
  "from": 1,
  "last_page": 367,
  "last_page_url": "http://127.0.0.1:8000/cities?page=367",
  "links": [
    { "url": null, "label": "pagination.previous", "active": false },
    {
      "url": "http://127.0.0.1:8000/cities?page=1",
      "label": "1",
      "active": true
    },
    {
      "url": "http://127.0.0.1:8000/cities?page=2",
      "label": "2",
      "active": false
    },
    {
      "url": "http://127.0.0.1:8000/cities?page=3",
      "label": "3",
      "active": false
    },
    {
      "url": "http://127.0.0.1:8000/cities?page=4",
      "label": "4",
      "active": false
    },
    {
      "url": "http://127.0.0.1:8000/cities?page=5",
      "label": "5",
      "active": false
    },
    {
      "url": "http://127.0.0.1:8000/cities?page=6",
      "label": "6",
      "active": false
    },
    {
      "url": "http://127.0.0.1:8000/cities?page=7",
      "label": "7",
      "active": false
    },
    {
      "url": "http://127.0.0.1:8000/cities?page=8",
      "label": "8",
      "active": false
    },
    {
      "url": "http://127.0.0.1:8000/cities?page=9",
      "label": "9",
      "active": false
    },
    {
      "url": "http://127.0.0.1:8000/cities?page=10",
      "label": "10",
      "active": false
    },
    { "url": null, "label": "...", "active": false },
    {
      "url": "http://127.0.0.1:8000/cities?page=366",
      "label": "366",
      "active": false
    },
    {
      "url": "http://127.0.0.1:8000/cities?page=367",
      "label": "367",
      "active": false
    },
    {
      "url": "http://127.0.0.1:8000/cities?page=2",
      "label": "pagination.next",
      "active": false
    }
  ],
  "next_page_url": "http://127.0.0.1:8000/cities?page=2",
  "path": "http://127.0.0.1:8000/cities",
  "per_page": 20,
  "prev_page_url": null,
  "to": 20,
  "total": 7334
}
