{
  "current_page": 1,
  "data": [
    {
      "state": "Andaman and Nicobar Islands",
      "state_id": 1,
      "country_id": 101,
      "country_name": "India"
    },
    {
      "state": "Andhrapradesh",
      "state_id": 2,
      "country_id": 101,
      "country_name": "India"
    },
    {
      "state": "Arunachal Pradesh",
      "state_id": 3,
      "country_id": 101,
      "country_name": "India"
    },
    {
      "state": "Assam",
      "state_id": 4,
      "country_id": 101,
      "country_name": "India"
    },
    {
      "state": "Bihar",
      "state_id": 5,
      "country_id": 101,
      "country_name": "India"
    },
    {
      "state": "Chandigarh",
      "state_id": 6,
      "country_id": 101,
      "country_name": "India"
    },
    {
      "state": "Chhattisgarh",
      "state_id": 7,
      "country_id": 101,
      "country_name": "India"
    },
    {
      "state": "Dadra and Nagar Haveli",
      "state_id": 8,
      "country_id": 101,
      "country_name": "India"
    },
    {
      "state": "Daman and Diu",
      "state_id": 9,
      "country_id": 101,
      "country_name": "India"
    },
    {
      "state": "Delhi-NCR",
      "state_id": 10,
      "country_id": 101,
      "country_name": "India"
    },
    {
      "state": "Goa",
      "state_id": 11,
      "country_id": 101,
      "country_name": "India"
    },
    {
      "state": "Gujarat",
      "state_id": 12,
      "country_id": 101,
      "country_name": "India"
    },
    {
      "state": "Haryana",
      "state_id": 13,
      "country_id": 101,
      "country_name": "India"
    },
    {
      "state": "Himachal Pradesh",
      "state_id": 14,
      "country_id": 101,
      "country_name": "India"
    },
    {
      "state": "Jammu and Kashmir",
      "state_id": 15,
      "country_id": 101,
      "country_name": "India"
    },
    {
      "state": "Jharkhand",
      "state_id": 16,
      "country_id": 101,
      "country_name": "India"
    },
    {
      "state": "Karnataka",
      "state_id": 17,
      "country_id": 101,
      "country_name": "India"
    },
    {
      "state": "Kenmore",
      "state_id": 18,
      "country_id": 101,
      "country_name": "India"
    },
    {
      "state": "Kerala",
      "state_id": 19,
      "country_id": 101,
      "country_name": "India"
    },
    {
      "state": "Lakshadweep",
      "state_id": 20,
      "country_id": 101,
      "country_name": "India"
    },
    {
      "state": "Tamilnadu",
      "state_id": 21,
      "country_id": 101,
      "country_name": "India"
    }
  ],
  "first_page_url": "http://127.0.0.1:8000/states?page=1",
  "from": 1,
  "last_page": 3,
  "last_page_url": "http://127.0.0.1:8000/states?page=3",
  "links": [
    { "url": null, "label": "pagination.previous", "active": false },
    {
      "url": "http://127.0.0.1:8000/states?page=1",
      "label": "1",
      "active": true
    },
    {
      "url": "http://127.0.0.1:8000/states?page=2",
      "label": "2",
      "active": false
    },
    {
      "url": "http://127.0.0.1:8000/states?page=3",
      "label": "3",
      "active": false
    },
    {
      "url": "http://127.0.0.1:8000/states?page=2",
      "label": "pagination.next",
      "active": false
    }
  ],
  "next_page_url": "http://127.0.0.1:8000/states?page=2",
  "path": "http://127.0.0.1:8000/states",
  "per_page": 20,
  "prev_page_url": null,
  "to": 20,
  "total": 42
}
